{"page":1,"total_results":10000,"total_pages":500,"results":[{"original_name":"The Flemish Bandits","genre_ids":[18,9648,10759],"name":"Thieves of the Wood","popularity":279.875,"origin_country":["BE"],"vote_count":18,"first_air_date":"2020-01-02","backdrop_path":"\/gVVaukIifGJD78llZKgyT5FQbAe.jpg","original_language":"nl","id":93533,"vote_average":5.4,"overview":"Charismatic highwayman Jan de Lichte leads the oppressed and downtrodden in a revolt against the corrupt aristocracy of 18th-century Belgium.","poster_path":"\/jQNOzoiaIQWxJAx8OUighnvnhRA.jpg"},{"original_name":"Star Trek: Picard","genre_ids":[10765],"name":"Star Trek: Picard","popularity":201.754,"origin_country":["US"],"vote_count":98,"first_air_date":"2020-01-23","backdrop_path":"\/mK286PAkhgLJqk5cO0BCmFLkNE7.jpg","original_language":"en","id":85949,"vote_average":8,"overview":"Set twenty years after the events of Star Trek Nemesis, we follow the now-retired Admiral Picard into the next chapter of his life.","poster_path":"\/nIlAKIrLKxOeoEnc0Urb65yNCp.jpg"},{"original_name":"The Simpsons","genre_ids":[16,35],"name":"The Simpsons","popularity":156.461,"origin_country":["US"],"vote_count":2376,"first_air_date":"1989-12-17","backdrop_path":"\/f5uNbUC76oowt5mt5J9QlqrIYQ6.jpg","original_language":"en","id":456,"vote_average":7.2,"overview":"Set in Springfield, the average American town, the show focuses on the antics and everyday adventures of the Simpson family; Homer, Marge, Bart, Lisa and Maggie, as well as a virtual cast of thousands. Since the beginning, the series has been a pop culture icon, attracting hundreds of celebrities to guest star. The show has also made name for itself in its fearless satirical take on politics, media and American life in general.","poster_path":"\/qcr9bBY6MVeLzriKCmJOv1562uY.jpg"},{"original_name":"The Flash","genre_ids":[18,10765],"name":"The Flash","popularity":158.947,"origin_country":["US"],"vote_count":3209,"first_air_date":"2014-10-07","backdrop_path":"\/6ZdQTBy20HzWudZthAV7NkZWfIb.jpg","original_language":"en","id":60735,"vote_average":6.8,"overview":"After a particle accelerator causes a freak storm, CSI Investigator Barry Allen is struck by lightning and falls into a coma. Months later he awakens with the power of super speed, granting him the ability to move through Central City like an unseen guardian angel. Though initially excited by his newfound powers, Barry is shocked to discover he is not the only \"meta-human\" who was created in the wake of the accelerator explosion -- and not everyone is using their new powers for good. Barry partners with S.T.A.R. Labs and dedicates his life to protect the innocent. For now, only a few close friends and associates know that Barry is literally the fastest man alive, but it won't be long before the world learns what Barry Allen has become...The Flash.","poster_path":"\/wHa6KOJAoNTFLFtp7wguUJKSnju.jpg"},{"original_name":"Rick and Morty","genre_ids":[16,35,10765],"name":"Rick and Morty","popularity":152.242,"origin_country":["US"],"vote_count":1692,"first_air_date":"2013-12-02","backdrop_path":"\/mzzHr6g1yvZ05Mc7hNj3tUdy2bM.jpg","original_language":"en","id":60625,"vote_average":8.6,"overview":"Rick is a mentally-unbalanced but scientifically-gifted old man who has recently reconnected with his family. He spends most of his time involving his young grandson Morty in dangerous, outlandish adventures throughout space and alternate universes. Compounded with Morty's already unstable family life, these events cause Morty much distress at home and school.","poster_path":"\/qJdfO3ahgAMf2rcmhoqngjBBZW1.jpg"},{"original_name":"Law & Order: Special Victims Unit","genre_ids":[80,18],"name":"Law & Order: Special Victims Unit","popularity":114.322,"origin_country":["US"],"vote_count":801,"first_air_date":"1999-09-20","backdrop_path":"\/kOvt2BOOwSAQCT8yo3pM3X2GXjh.jpg","original_language":"en","id":2734,"vote_average":6.5,"overview":"In the criminal justice system, sexually-based offenses are considered especially heinous. In New York City, the dedicated detectives who investigate these vicious felonies are members of an elite squad known as the Special Victims Unit. These are their stories.","poster_path":"\/6t6r1VGQTTQecN4V0sZeqsmdU9g.jpg"},{"original_name":"Arrow","genre_ids":[80,18,9648,10759],"name":"Arrow","popularity":140.243,"origin_country":["US"],"vote_count":3084,"first_air_date":"2012-10-10","backdrop_path":"\/dKxkwAJfGuznW8Hu0mhaDJtna0n.jpg","original_language":"en","id":1412,"vote_average":5.9,"overview":"Spoiled billionaire playboy Oliver Queen is missing and presumed dead when his yacht is lost at sea. He returns five years later a changed man, determined to clean up the city as a hooded vigilante armed with a bow.","poster_path":"\/gKG5QGz5Ngf8fgWpBsWtlg5L2SF.jpg"},{"original_name":"Grey's Anatomy","genre_ids":[18],"name":"Grey's Anatomy","popularity":99.22,"origin_country":["US"],"vote_count":1210,"first_air_date":"2005-03-27","backdrop_path":"\/edmk8xjGBsYVIf4QtLY9WMaMcXZ.jpg","original_language":"en","id":1416,"vote_average":6.6,"overview":"Follows the personal and professional lives of a group of doctors at Seattle’s Grey Sloan Memorial Hospital.","poster_path":"\/jnsvc7gCKocXnrTXF6p03cICTWb.jpg"},{"original_name":"Vikings","genre_ids":[18,10759],"name":"Vikings","popularity":112.092,"origin_country":["CA"],"vote_count":1957,"first_air_date":"2013-03-03","backdrop_path":"\/aq2yEMgRQBPfRkrO0Repo2qhUAT.jpg","original_language":"en","id":44217,"vote_average":7.5,"overview":"The adventures of Ragnar Lothbrok, the greatest hero of his age. The series tells the sagas of Ragnar's band of Viking brothers and his family, as he rises to become King of the Viking tribes. As well as being a fearless warrior, Ragnar embodies the Norse traditions of devotion to the gods. Legend has it that he was a direct descendant of Odin, the god of war and warriors.","poster_path":"\/ff1zhqvwfS5HvRNcA5UFrH0PA2q.jpg"},{"original_name":"Doctor Who","genre_ids":[18,10759,10765],"name":"Doctor Who","popularity":103.908,"origin_country":["GB"],"vote_count":1609,"first_air_date":"2005-03-26","backdrop_path":"\/nfH8SZJVOxcBlFaqqtoqS5hHizG.jpg","original_language":"en","id":57243,"vote_average":7,"overview":"The Doctor is a Time Lord: a 900 year old alien with 2 hearts, part of a gifted civilization who mastered time travel. The Doctor saves planets for a living—more of a hobby actually, and the Doctor's very, very good at it.","poster_path":"\/cDDb7WA2i7cENhkEEjXEDrXGyNL.jpg"},{"original_name":"Brooklyn Nine-Nine","genre_ids":[35,80],"name":"Brooklyn Nine-Nine","popularity":71.455,"origin_country":["US"],"vote_count":850,"first_air_date":"2013-09-17","backdrop_path":"\/vbLl9JL0SxemW5OyI9CzCQdlcX3.jpg","original_language":"en","id":48891,"vote_average":7.8,"overview":"A single-camera ensemble comedy following the lives of an eclectic group of detectives in a New York precinct, including one slacker who is forced to shape up when he gets a new boss.","poster_path":"\/dzj0oLZWe3qMgK4jlgdKWPVxxIx.jpg"},{"original_name":"Locke & Key","genre_ids":[18,10759,10765],"name":"Locke & Key","popularity":100.36,"origin_country":["US"],"vote_count":25,"first_air_date":"2020-02-07","backdrop_path":"\/wAQ50FyrqDGkPWLn57gz7pDgmRK.jpg","original_language":"en","id":86423,"vote_average":8.7,"overview":"Three siblings who move into their ancestral estate after their father's gruesome murder discover their new home's magical keys, which must be used in their stand against an evil creature who wants the keys and their powers.","poster_path":"\/lKhF0QX724VS2QqBzSZ4KJif3Ny.jpg"},{"original_name":"Criminal Minds","genre_ids":[80,18,9648],"name":"Criminal Minds","popularity":99.117,"origin_country":["US"],"vote_count":741,"first_air_date":"2005-09-22","backdrop_path":"\/mzyLxbwy5jOveyfsbC1OWGp78NV.jpg","original_language":"en","id":4057,"vote_average":7.4,"overview":"An elite team of FBI profilers analyze the country's most twisted criminal minds, anticipating their next moves before they strike again. The Behavioral Analysis Unit's most experienced agent is David Rossi, a founding member of the BAU who returns to help the team solve new cases.","poster_path":"\/7TCwgX7oQKxcWYEhSPRmaHe6ULN.jpg"},{"original_name":"犬とハサミは使いよう","genre_ids":[16,35],"name":"Dog & Scissors","popularity":104.059,"origin_country":["JP"],"vote_count":15,"first_air_date":"2013-07-01","backdrop_path":"\/rQEpHHLg45QK4jBuIkI70fG62x3.jpg","original_language":"ja","id":49464,"vote_average":6.1,"overview":"A nonsense comical mystery. Harumi Kazuhito is a high school boy who loves books and is a fan of novelist Natsuno Kirihime. One day, he finds Kirihime writing at a cafe, about to be shot by a robber. He protects her from the attack but is killed instead. Through the supernatural power of a book-worm, he is reincarnated as a dachshund dog. Kazuhito (as a dog) writhes in a painful bookless life, when a sadistic woman carrying a pair of scissors offers him help. She is Kirihime herself.","poster_path":"\/2BAVA7wKnkz8liwqlQMZY3WZFS3.jpg"},{"original_name":"Homeland","genre_ids":[80,18,10759,10768],"name":"Homeland","popularity":104.994,"origin_country":["US"],"vote_count":1096,"first_air_date":"2011-10-02","backdrop_path":"\/hTxfw4af6EizpLM7tHKtoSlbdnu.jpg","original_language":"en","id":1407,"vote_average":7.5,"overview":"CIA officer Carrie Mathison is tops in her field despite being bipolar, which makes her volatile and unpredictable. With the help of her long-time mentor Saul Berenson, Carrie fearlessly risks everything, including her personal well-being and even sanity, at every turn.","poster_path":"\/6GAvS2e6VIRsms9FpVt33PsCoEW.jpg"},{"original_name":"Supernatural","id":1622,"name":"Supernatural","popularity":115.384,"vote_count":2222,"vote_average":7.5,"first_air_date":"2005-09-13","poster_path":"\/KoYWXbnYuS3b0GyQPkbuexlVK9.jpg","genre_ids":[18,9648,10765],"original_language":"en","backdrop_path":"\/o9OKe3M06QMLOzTl3l6GStYtnE9.jpg","overview":"When they were boys, Sam and Dean Winchester lost their mother to a mysterious and demonic supernatural force. Subsequently, their father raised them to be soldiers. He taught them about the paranormal evil that lives in the dark corners and on the back roads of America ... and he taught them how to kill it. Now, the Winchester brothers crisscross the country in their '67 Chevy Impala, battling every kind of supernatural threat they encounter along the way. ","origin_country":["US"]},{"original_name":"Mythic Quest: Raven's Banquet","genre_ids":[35],"name":"Mythic Quest: Raven's Banquet","popularity":77.556,"origin_country":["US"],"vote_count":5,"first_air_date":"2020-02-07","backdrop_path":"\/3rTC68FlKeFsTZ3P0oC3S727Xqd.jpg","original_language":"en","id":94951,"vote_average":6.6,"overview":"Meet the team behind the biggest multiplayer video game of all time. But in a workplace focused on building worlds, molding heroes, and creating legends, the most hard-fought battles don’t occur in the game—they happen in the office.","poster_path":"\/lEPXDqTntfWGWoU4E0xtxhFn2Wj.jpg"},{"original_name":"The Blacklist","genre_ids":[80,18,9648],"name":"The Blacklist","popularity":90.533,"origin_country":["US"],"vote_count":1177,"first_air_date":"2013-09-23","backdrop_path":"\/fHwiAqIKragaCbNJo9Qs4lrccIN.jpg","original_language":"en","id":46952,"vote_average":7,"overview":"Raymond \"Red\" Reddington, one of the FBI's most wanted fugitives, surrenders in person at FBI Headquarters in Washington, D.C. He claims that he and the FBI have the same interests: bringing down dangerous criminals and terrorists. In the last two decades, he's made a list of criminals and terrorists that matter the most but the FBI cannot find because it does not know they exist. Reddington calls this \"The Blacklist\". Reddington will co-operate, but insists that he will speak only to Elizabeth Keen, a rookie FBI profiler.","poster_path":"\/bgbQCW4fE9b6wSOSC6Fb4FfVzsW.jpg"},{"original_name":"Riverdale","genre_ids":[18,9648],"name":"Riverdale","popularity":75.038,"origin_country":["US"],"vote_count":835,"first_air_date":"2017-01-26","backdrop_path":"\/yVc41GMQw4yujjk6fuuAMMFTt8H.jpg","original_language":"en","id":69050,"vote_average":7.4,"overview":"Set in the present, the series offers a bold, subversive take on Archie, Betty, Veronica and their friends, exploring the surreality of small-town life, the darkness and weirdness bubbling beneath Riverdale’s wholesome facade.","poster_path":"\/4X7o1ssOEvp4BFLim1AZmPNcYbU.jpg"},{"original_name":"Insatiable","genre_ids":[35,18],"name":"Insatiable","popularity":80.878,"origin_country":["US"],"vote_count":87,"first_air_date":"2018-08-10","backdrop_path":"\/q54k3tg5VjezBagGRtFamVqdY7L.jpg","original_language":"en","id":80743,"vote_average":7.3,"overview":"A bullied teenager turns to beauty pageants as a way to exact her revenge, with the help of a disgraced coach who soon realizes he's in over his head.","poster_path":"\/lHZ4xqGQlmyiFTOVtwnNpTcZgkd.jpg"}]}